{
  "project_info": {
    "project_number": "1007205305837",
    "firebase_url": "https://platforma-38ec5.firebaseio.com",
    "project_id": "platforma-38ec5",
    "storage_bucket": "platforma-38ec5.appspot.com"
  },
  "client": [
    {
      "client_info": {
        "mobilesdk_app_id": "1:1007205305837:android:363839062470444a",
        "android_client_info": {
          "package_name": "com.ub.platforma"
        }
      },
      "oauth_client": [
        {
          "client_id": "1007205305837-32847u2bmun4buaiddvvno1vk0bjgo3n.apps.googleusercontent.com",
          "client_type": 1,
          "android_info": {
            "package_name": "com.ub.platforma",
            "certificate_hash": "dcd09f732e78b8b0f371bdcce65bf391535b6f6a"
          }
        },
        {
          "client_id": "1007205305837-0j3oo0tul95grm1qtqhnhhuke4t8oeg5.apps.googleusercontent.com",
          "client_type": 3
        }
      ],
      "api_key": [
        {
          "current_key": "AIzaSyA_JlnWZpVHBNqcOV4U7ACoM86pUXYRZiY"
        }
      ],
      "services": {
        "analytics_service": {
          "status": 1
        },
        "appinvite_service": {
          "status": 2,
          "other_platform_oauth_client": [
            {
              "client_id": "1007205305837-0j3oo0tul95grm1qtqhnhhuke4t8oeg5.apps.googleusercontent.com",
              "client_type": 3
            }
          ]
        },
        "ads_service": {
          "status": 2
        }
      }
    }
  ],
  "configuration_version": "1"
}